module receiver-grpc

go 1.21.3

require (
	github.com/stretchr/testify v1.8.4
	google.golang.org/grpc v1.59.0
	google.golang.org/protobuf v1.31.0
)

require (
	github.com/davecgh/go-spew v1.1.1 // indirect
	github.com/golang/protobuf v1.5.3 // indirect
	github.com/pmezard/go-difflib v1.0.0 // indirect
	golang.org/x/net v0.14.0 // indirect
	golang.org/x/sys v0.11.0 // indirect
	golang.org/x/text v0.12.0 // indirect
	google.golang.org/genproto/googleapis/rpc v0.0.0-20230822172742-b8732ec3820d // indirect
	gopkg.in/yaml.v3 v3.0.1 // indirect
)
